<svg width="22" height="33" viewBox="0 0 22 33" fill="none" xmlns="http://www.w3.org/2000/svg">
<rect x="0.5" y="0.5" width="21" height="32" rx="0.5" stroke="#212121"/>
<rect x="16.5" y="23.0996" width="2" height="2" rx="0.5" stroke="#212121"/>
<rect x="12.5" y="24.0996" width="1" height="1" stroke="#212121"/>
<path d="M4 5L18 5" stroke="#212121" stroke-linecap="round" stroke-linejoin="round"/>
<path d="M4 9L18 9" stroke="#212121" stroke-linecap="round" stroke-linejoin="round"/>
<path d="M4 13L18 13" stroke="#212121" stroke-linecap="round" stroke-linejoin="round"/>
<path d="M4 17L18 17" stroke="#212121" stroke-linecap="round" stroke-linejoin="round"/>
</svg>
