<svg width="45" height="22" viewBox="0 0 45 22" fill="none" xmlns="http://www.w3.org/2000/svg">
<rect x="0.5" y="0.5" width="44" height="20.7241" rx="0.5" stroke="#212121"/>
<circle cx="15.7587" cy="10.8622" r="5.7069" stroke="#212121"/>
<circle cx="15.7586" cy="10.8623" r="2.35844" stroke="#212121"/>
<path d="M12.3284 7.43164L19.1886 14.2919" stroke="#212121" stroke-linecap="round" stroke-linejoin="round"/>
<path d="M8 3.10254L9.55172 4.65426" stroke="#212121" stroke-linecap="round" stroke-linejoin="round"/>
<path d="M9.55176 17.0693L8.00003 18.6211" stroke="#212121" stroke-linecap="round" stroke-linejoin="round"/>
<path d="M23.4482 18.6211L21.8965 17.0694" stroke="#212121" stroke-linecap="round" stroke-linejoin="round"/>
<path d="M21.8965 4.6543L23.4482 3.10257" stroke="#212121" stroke-linecap="round" stroke-linejoin="round"/>
<path d="M19.1887 7.43164L12.3285 14.2919" stroke="#212121" stroke-linecap="round" stroke-linejoin="round"/>
<path d="M41 3.1543L41.0517 3.10257" stroke="#212121" stroke-linecap="round" stroke-linejoin="round"/>
<path d="M41 19.0518L41.0517 19" stroke="#212121" stroke-linecap="round" stroke-linejoin="round"/>
<path d="M4 3.1543L4.05172 3.10257" stroke="#212121" stroke-linecap="round" stroke-linejoin="round"/>
<path d="M4 19.0518L4.05172 19" stroke="#212121" stroke-linecap="round" stroke-linejoin="round"/>
</svg>
