<svg width="20" height="33" viewBox="0 0 20 33" fill="none" xmlns="http://www.w3.org/2000/svg">
<rect x="18.6016" y="0.75" width="31.5" height="17" rx="7.25" transform="rotate(90 18.6016 0.75)" stroke="#212121" stroke-width="1.5"/>
<mask id="path-2-inside-1" fill="white">
<rect x="12.3516" y="7" width="19" height="4" rx="1" transform="rotate(90 12.3516 7)"/>
</mask>
<rect x="12.3516" y="7" width="19" height="4" rx="1" transform="rotate(90 12.3516 7)" stroke="#212121" stroke-width="3" mask="url(#path-2-inside-1)"/>
</svg>
