<svg width="57" height="43" viewBox="0 0 57 43" fill="none" xmlns="http://www.w3.org/2000/svg">
<path d="M24.2722 15.2494V11.8611C24.2722 6.94315 19.8585 2.95 14.4444 2.95C9.03035 2.95 4.61667 6.94315 4.61667 11.8611V15.2494C2.53522 15.6283 0.95 17.4504 0.95 19.6406V31.5829C0.95 34.0458 2.95422 36.05 5.41772 36.05H23.4712C25.9347 36.05 27.9389 34.0458 27.9389 31.5823V19.6399C27.9389 17.4504 26.3537 15.6283 24.2722 15.2494ZM5.93889 11.8611C5.93889 7.68151 9.7488 4.27222 14.4444 4.27222C19.1401 4.27222 22.95 7.68151 22.95 11.8611V15.1722H5.93889V11.8611ZM26.6167 31.5823C26.6167 33.3165 25.2054 34.7278 23.4712 34.7278H5.41772C3.6835 34.7278 2.27222 33.3165 2.27222 31.5823V19.6399C2.27222 17.9057 3.6835 16.4944 5.41772 16.4944H23.4712C25.2054 16.4944 26.6167 17.9057 26.6167 19.6399V31.5823Z" fill="#212121" stroke="#212121" stroke-width="0.1"/>
<path d="M7.85187 15.4999C7.35162 12 7.35177 6.49983 13.8519 5.99988C21.8281 5.38639 21.3521 12.9997 20.8516 15.5" stroke="#212121" stroke-width="1.5"/>
<path d="M16.5688 19.9424V21.4712C17.9608 22.19 18.9151 23.6409 18.9151 25.3168C18.9151 27.7076 16.9769 29.6466 14.5862 29.6466C12.1946 29.6466 10.2556 27.7076 10.2556 25.3168C10.2556 23.78 11.06 22.4323 12.2662 21.6643V20.0751C10.2564 20.9663 8.85156 22.976 8.85156 25.3172C8.85156 28.484 11.4182 31.051 14.5846 31.051C17.7525 31.051 20.3184 28.484 20.3184 25.3172C20.318 22.8477 18.7544 20.7508 16.5688 19.9424Z" fill="#212121"/>
<path d="M14.4737 26.0571C15.1038 26.0571 15.1677 25.6849 15.1677 25.2272V19.8316C15.1677 19.3726 15.1038 19 14.4737 19C13.846 19 13.7813 19.3726 13.7813 19.8316V25.2272C13.7809 25.6853 13.846 26.0571 14.4737 26.0571Z" fill="#212121"/>
<path d="M39.1076 17.306C42.8876 17.306 43.3916 14.084 43.3916 10.502C43.3916 7.532 42.9056 3.788 39.1076 3.788C35.3276 3.788 34.8416 7.532 34.8416 10.502C34.8416 14.084 35.3276 17.306 39.1076 17.306ZM41.8976 10.286C41.8976 14.03 41.4836 16.01 39.1076 16.01C36.7316 16.01 36.3356 14.03 36.3356 10.268C36.3356 7.37 36.8576 5.084 39.0716 5.084C41.3576 5.084 41.8976 7.388 41.8976 10.286ZM47.9089 7.388H46.5409V17H47.9089V10.358C47.9089 9.206 48.7009 8.288 49.8709 8.288C50.9869 8.288 51.3109 8.972 51.3109 9.962V17H52.6789V9.584C52.6789 7.892 51.7429 7.136 50.3029 7.136C49.2769 7.136 48.4849 7.658 47.9269 8.45H47.9089V7.388Z" fill="#212121"/>
<path d="M39.1076 36.306C42.8876 36.306 43.3916 33.084 43.3916 29.502C43.3916 26.532 42.9056 22.788 39.1076 22.788C35.3276 22.788 34.8416 26.532 34.8416 29.502C34.8416 33.084 35.3276 36.306 39.1076 36.306ZM41.8976 29.286C41.8976 33.03 41.4836 35.01 39.1076 35.01C36.7316 35.01 36.3356 33.03 36.3356 29.268C36.3356 26.37 36.8576 24.084 39.0716 24.084C41.3576 24.084 41.8976 26.388 41.8976 29.286ZM45.4969 26.406V27.558H46.9009V36H48.2689V27.558H49.7629V26.406H48.2689V25.38C48.2689 24.408 48.5209 24.156 49.2229 24.156C49.3849 24.156 49.5829 24.174 49.7629 24.192V23.04C49.5289 23.022 49.2769 23.004 49.0789 23.004C47.1349 23.004 46.9009 23.958 46.9009 25.56V26.406H45.4969ZM51.4594 26.406V27.558H52.8634V36H54.2314V27.558H55.7254V26.406H54.2314V25.38C54.2314 24.408 54.4834 24.156 55.1854 24.156C55.3474 24.156 55.5454 24.174 55.7254 24.192V23.04C55.4914 23.022 55.2394 23.004 55.0414 23.004C53.0974 23.004 52.8634 23.958 52.8634 25.56V26.406H51.4594Z" fill="#212121"/>
</svg>
