<svg width="277" height="70" viewBox="0 0 277 70" fill="none" xmlns="http://www.w3.org/2000/svg">
<rect width="64.8505" height="41" fill="#DADADA"/>
<rect x="65" y="4" width="196" height="34" fill="#E9E9E9"/>
<rect x="261" width="9.60748" height="41" fill="#DADADA"/>
<rect x="270.606" width="6.00468" height="41" fill="#E9E9E9"/>
<path d="M66.6464 65.6464C66.4512 65.8417 66.4512 66.1583 66.6464 66.3536L69.8284 69.5355C70.0237 69.7308 70.3403 69.7308 70.5355 69.5355C70.7308 69.3403 70.7308 69.0237 70.5355 68.8284L67.7071 66L70.5355 63.1716C70.7308 62.9763 70.7308 62.6597 70.5355 62.4645C70.3403 62.2692 70.0237 62.2692 69.8284 62.4645L66.6464 65.6464ZM261.354 66.3536C261.549 66.1583 261.549 65.8417 261.354 65.6464L258.172 62.4645C257.976 62.2692 257.66 62.2692 257.464 62.4645C257.269 62.6597 257.269 62.9763 257.464 63.1716L260.293 66L257.464 68.8284C257.269 69.0237 257.269 69.3403 257.464 69.5355C257.66 69.7308 257.976 69.7308 258.172 69.5355L261.354 66.3536ZM67 66.5H261V65.5H67V66.5Z" fill="#212121"/>
<path d="M135.016 54.268H135.604C137.116 54.268 137.536 55.458 137.536 56.354C137.536 57.418 137.102 58.468 135.87 58.468C134.61 58.468 134.246 57.474 134.246 56.396H133.42C133.42 58.664 134.666 59.196 135.898 59.196C136.346 59.196 138.418 59.098 138.418 56.368C138.418 55.36 138.082 54.156 136.696 53.834C138.054 53.274 138.152 51.986 138.152 51.608C138.152 50.124 137.494 49.004 135.898 49.004C134.344 49.004 133.644 50.306 133.644 51.692H134.428C134.47 50.88 134.722 49.732 135.87 49.732C136.934 49.732 137.284 50.628 137.284 51.538C137.284 52.854 136.64 53.54 135.282 53.54H135.016V54.268ZM140.319 49.998H144.295C142.405 52.462 141.271 56.186 141.145 59H142.013C142.181 55.92 143.049 53.008 145.177 49.984V49.186H140.319V49.998ZM146.799 54.114C146.799 56.508 147.009 59.196 149.277 59.196C151.601 59.196 151.755 56.508 151.755 54.114C151.755 51.72 151.475 49.004 149.277 49.004C147.037 49.004 146.799 51.72 146.799 54.114ZM147.667 54.114C147.667 50.992 148.171 49.732 149.277 49.732C150.383 49.732 150.887 50.992 150.887 54.114C150.887 57.208 150.397 58.468 149.277 58.468C148.171 58.468 147.667 57.208 147.667 54.114ZM158.232 51.58H157.448V59H158.232V53.526C158.232 52.658 159.044 52.084 159.66 52.084C160.668 52.084 160.766 52.798 160.766 53.638V59H161.55V53.582C161.55 52.644 162.166 52.084 163.062 52.084C163.846 52.084 164.084 52.686 164.084 53.316V59H164.868V53.4C164.868 52.238 164.49 51.398 163.16 51.398C162.474 51.398 161.816 51.65 161.41 52.224H161.382C160.934 51.524 160.486 51.398 159.828 51.398C159.184 51.398 158.554 51.79 158.26 52.308H158.232V51.58ZM167.983 51.58H167.199V59H167.983V53.526C167.983 52.658 168.795 52.084 169.411 52.084C170.419 52.084 170.517 52.798 170.517 53.638V59H171.301V53.582C171.301 52.644 171.917 52.084 172.813 52.084C173.597 52.084 173.835 52.686 173.835 53.316V59H174.619V53.4C174.619 52.238 174.241 51.398 172.911 51.398C172.225 51.398 171.567 51.65 171.161 52.224H171.133C170.685 51.524 170.237 51.398 169.579 51.398C168.935 51.398 168.305 51.79 168.011 52.308H167.983V51.58Z" fill="#212121"/>
<path d="M12.372 17.972C12.372 16.908 12.652 15.732 13.856 15.732C14.892 15.732 15.438 16.642 15.438 17.594C15.438 19.274 14.64 19.834 13.268 21.234C12.204 22.326 11.448 22.858 11.448 24.3V25H16.306V24.188H12.33C12.33 23.418 12.708 22.9 12.876 22.746C14.262 21.36 16.306 19.806 16.306 17.65C16.306 16.012 15.34 15.004 13.94 15.004C12.232 15.004 11.532 16.32 11.532 17.972H12.372ZM21.4693 15.004L18.0253 21.514V22.312H21.4273V25H22.2953V22.312H23.1773V21.584H22.2953V15.004H21.4693ZM18.8093 21.584L21.3993 16.572H21.4273V21.584H18.8093ZM29.5987 24.384C29.9907 24.944 30.4947 25.196 31.1527 25.196C33.1547 25.196 33.3787 23.096 33.3787 21.066C33.3787 19.484 33.1127 17.398 31.0827 17.398C30.4247 17.398 29.8787 17.776 29.5987 18.252H29.5707V17.58H28.8147V27.562H29.5987V24.384ZM31.0967 18.084C32.4547 18.084 32.5947 19.988 32.5947 21.15C32.5947 22.928 32.3847 24.51 31.0407 24.51C29.6967 24.51 29.5987 22.592 29.5987 21.15C29.5987 19.988 29.6687 18.084 31.0967 18.084ZM36.4699 17.58H35.6859V25H36.4699V17.58ZM35.6859 14.92V16.18H36.4699V14.92H35.6859ZM39.8167 17.58H39.0327V25H39.8167V19.442C39.8167 18.644 40.6707 18.084 41.3847 18.084C42.4487 18.084 42.5327 18.91 42.5327 19.778V25H43.3167V19.624C43.3167 18.616 43.2747 17.398 41.4267 17.398C40.7967 17.398 40.1807 17.762 39.8167 18.364V17.58Z" fill="#212121"/>
</svg>
