<svg width="252" height="55" viewBox="0 0 252 55" fill="none" xmlns="http://www.w3.org/2000/svg">
<rect width="65" height="25" fill="#DADADA"/>
<rect x="65" y="6" width="176" height="13" fill="#E9E9E9"/>
<rect x="241" y="4" width="7" height="17" fill="#DADADA"/>
<rect x="248" y="4" width="4" height="17" fill="#E9E9E9"/>
<path d="M64.6464 50.6464C64.4512 50.8417 64.4512 51.1583 64.6464 51.3536L67.8284 54.5355C68.0237 54.7308 68.3403 54.7308 68.5355 54.5355C68.7308 54.3403 68.7308 54.0237 68.5355 53.8284L65.7071 51L68.5355 48.1716C68.7308 47.9763 68.7308 47.6597 68.5355 47.4645C68.3403 47.2692 68.0237 47.2692 67.8284 47.4645L64.6464 50.6464ZM241.354 51.3536C241.549 51.1583 241.549 50.8417 241.354 50.6465L238.172 47.4645C237.976 47.2692 237.66 47.2692 237.464 47.4645C237.269 47.6597 237.269 47.9763 237.464 48.1716L240.293 51L237.464 53.8284C237.269 54.0237 237.269 54.3403 237.464 54.5355C237.66 54.7308 237.976 54.7308 238.172 54.5355L241.354 51.3536ZM65 51.5L241 51.5L241 50.5L65 50.5L65 51.5Z" fill="#212121"/>
<path d="M135.016 39.268H135.604C137.116 39.268 137.536 40.458 137.536 41.354C137.536 42.418 137.102 43.468 135.87 43.468C134.61 43.468 134.246 42.474 134.246 41.396H133.42C133.42 43.664 134.666 44.196 135.898 44.196C136.346 44.196 138.418 44.098 138.418 41.368C138.418 40.36 138.082 39.156 136.696 38.834C138.054 38.274 138.152 36.986 138.152 36.608C138.152 35.124 137.494 34.004 135.898 34.004C134.344 34.004 133.644 35.306 133.644 36.692H134.428C134.47 35.88 134.722 34.732 135.87 34.732C136.934 34.732 137.284 35.628 137.284 36.538C137.284 37.854 136.64 38.54 135.282 38.54H135.016V39.268ZM141.019 36.972C141.019 35.908 141.299 34.732 142.503 34.732C143.539 34.732 144.085 35.642 144.085 36.594C144.085 38.274 143.287 38.834 141.915 40.234C140.851 41.326 140.095 41.858 140.095 43.3V44H144.953V43.188H140.977C140.977 42.418 141.355 41.9 141.523 41.746C142.909 40.36 144.953 38.806 144.953 36.65C144.953 35.012 143.987 34.004 142.587 34.004C140.879 34.004 140.179 35.32 140.179 36.972H141.019ZM146.799 39.114C146.799 41.508 147.009 44.196 149.277 44.196C151.601 44.196 151.755 41.508 151.755 39.114C151.755 36.72 151.475 34.004 149.277 34.004C147.037 34.004 146.799 36.72 146.799 39.114ZM147.667 39.114C147.667 35.992 148.171 34.732 149.277 34.732C150.383 34.732 150.887 35.992 150.887 39.114C150.887 42.208 150.397 43.468 149.277 43.468C148.171 43.468 147.667 42.208 147.667 39.114ZM158.232 36.58H157.448V44H158.232V38.526C158.232 37.658 159.044 37.084 159.66 37.084C160.668 37.084 160.766 37.798 160.766 38.638V44H161.55V38.582C161.55 37.644 162.166 37.084 163.062 37.084C163.846 37.084 164.084 37.686 164.084 38.316V44H164.868V38.4C164.868 37.238 164.49 36.398 163.16 36.398C162.474 36.398 161.816 36.65 161.41 37.224H161.382C160.934 36.524 160.486 36.398 159.828 36.398C159.184 36.398 158.554 36.79 158.26 37.308H158.232V36.58ZM167.983 36.58H167.199V44H167.983V38.526C167.983 37.658 168.795 37.084 169.411 37.084C170.419 37.084 170.517 37.798 170.517 38.638V44H171.301V38.582C171.301 37.644 171.917 37.084 172.813 37.084C173.597 37.084 173.835 37.686 173.835 38.316V44H174.619V38.4C174.619 37.238 174.241 36.398 172.911 36.398C172.225 36.398 171.567 36.65 171.161 37.224H171.133C170.685 36.524 170.237 36.398 169.579 36.398C168.935 36.398 168.305 36.79 168.011 37.308H167.983V36.58Z" fill="#212121"/>
<path d="M15.822 7.004L12.378 13.514V14.312H15.78V17H16.648V14.312H17.53V13.584H16.648V7.004H15.822ZM13.162 13.584L15.752 8.572H15.78V13.584H13.162ZM23.9514 16.384C24.3434 16.944 24.8474 17.196 25.5054 17.196C27.5074 17.196 27.7314 15.096 27.7314 13.066C27.7314 11.484 27.4654 9.398 25.4354 9.398C24.7774 9.398 24.2314 9.776 23.9514 10.252H23.9234V9.58H23.1674V19.562H23.9514V16.384ZM25.4494 10.084C26.8074 10.084 26.9474 11.988 26.9474 13.15C26.9474 14.928 26.7374 16.51 25.3934 16.51C24.0494 16.51 23.9514 14.592 23.9514 13.15C23.9514 11.988 24.0214 10.084 25.4494 10.084ZM30.8227 9.58H30.0387V17H30.8227V9.58ZM30.0387 6.92V8.18H30.8227V6.92H30.0387ZM34.1694 9.58H33.3854V17H34.1694V11.442C34.1694 10.644 35.0234 10.084 35.7374 10.084C36.8014 10.084 36.8854 10.91 36.8854 11.778V17H37.6694V11.624C37.6694 10.616 37.6274 9.398 35.7794 9.398C35.1494 9.398 34.5334 9.762 34.1694 10.364V9.58Z" fill="#212121"/>
</svg>
